<svg width="359" height="33" viewBox="0 0 359 33" fill="none" xmlns="http://www.w3.org/2000/svg">
<g clip-path="url(#clip0)">
<g clip-path="url(#clip1)">
<path d="M269.231 8.84619V14.7693H275.231V8.84619V2.84619H269.231V8.84619Z" fill="#A5C8E1"/>
<path d="M269.231 -15.1538V-9.15383V-3.15383H263.308V2.84617H257.308V-3.15383V-9.15383V-15.1538V-21.0769H251.308V-27.0769H245.308H239.308V-21.0769V-15.1538H233.385V-9.15383V-3.15383V2.84617H227.385V-3.15383H221.385V2.84617V8.84617H227.385V14.7693H233.385H239.308V8.84617V2.84617V-3.15383V-9.15383H245.308H251.308V-3.15383V2.84617V8.84617H257.308V14.7693V20.7692H263.308V14.7693H269.231V8.84617V2.84617H275.231V-3.15383V-9.15383V-15.1538V-21.0769H269.231V-15.1538Z" fill="white"/>
<path d="M269.308 14.7693H263.308V20.7693H269.308V14.7693Z" fill="#A5C8E1"/>
<path d="M263.308 20.7692H257.308V26.7692H263.308V20.7692Z" fill="#A5C8E1"/>
<path d="M257.308 -9.15383V-3.15383V2.84618H263.308V-3.15383H269.231V-9.15383H263.308V-15.1538V-21.0769H257.308V-15.1538V-9.15383Z" fill="white"/>
<path d="M251.308 20.7693H257.308V14.7693V8.84619H251.308V14.7693V20.7693Z" fill="#A5C8E1"/>
<path d="M245.308 8.84613H251.308V2.84613V-3.15387V-9.15387H245.308H239.308V-3.15387V2.84613V8.84613V14.7692H245.308V8.84613Z" fill="#A5C8E1"/>
<path d="M221.385 -3.15381H227.385V2.84619H233.385V-3.15381V-9.15381H227.385V-15.1538H221.385V-9.15381V-3.15381Z" fill="white"/>
<path d="M215.385 -9.15387H209.385H203.462H197.462V-3.15387H191.462V2.84613H185.462V8.84613V14.7692H179.462V8.84613H173.539V2.84613V-3.15387H167.539V-9.15387H161.539V-3.15387V2.84613V8.84613H155.539V14.7692V20.7692H161.539V14.7692H167.539H173.539V20.7692H179.462V26.7692H185.462V20.7692H191.462V14.7692H197.462V8.84613H203.462H209.385V14.7692H215.385H221.385V20.7692H227.385V26.7692H233.385V20.7692H239.308V14.7692H233.385H227.385V8.84613H221.385V2.84613V-3.15387H215.385V-9.15387Z" fill="#A5C8E1"/>
<path d="M191.461 -3.15387H197.461V-9.15387H191.461H185.461V-3.15387V2.84613H191.461V-3.15387Z" fill="white"/>
<path d="M173.539 -21.0769V-15.1538V-9.15383H179.462V-3.15383V2.84617H185.462V-3.15383V-9.15383H191.462H197.462V-15.1538V-21.0769V-27.0769H191.462V-21.0769H185.462V-15.1538H179.462V-21.0769V-27.0769H173.539H167.539H161.539V-21.0769H167.539H173.539Z" fill="white"/>
<path d="M149.615 14.7693V8.84619H143.615V2.84619V-3.15381H137.615V2.84619V8.84619H131.615V14.7693V20.7693H125.615V26.7693H131.615V32.7693H137.615V26.7693V20.7693V14.7693H143.615V20.7693V26.7693H149.615V32.7693H155.538V26.7693V20.7693H149.615V14.7693Z" fill="#A5C8E1"/>
<path d="M101.692 20.7693H107.692V26.7693H113.692V20.7693H119.692H125.615V14.7693V8.84619H119.692V14.7693H113.692V8.84619H107.692V2.84619H101.692V-3.15381H95.6924V2.84619V8.84619V14.7693H101.692V20.7693Z" fill="#A5C8E1"/>
<path d="M101.692 2.84617H107.692V8.84617H113.692V14.7693H119.692V8.84617H125.615V14.7693V20.7692H131.615V14.7693V8.84617H137.615V2.84617V-3.15383H143.615V2.84617V8.84617H149.615V14.7693V20.7692H155.539V14.7693V8.84617H161.539V2.84617V-3.15383V-9.15383H167.539V-3.15383H173.539V2.84617V8.84617H179.462V14.7693H185.462V8.84617V2.84617H179.462V-3.15383V-9.15383H173.539V-15.1538V-21.0769H167.539H161.539V-15.1538H155.539V-9.15383V-3.15383H149.615V-9.15383V-15.1538H143.615V-21.0769H137.615H131.615V-15.1538V-9.15383V-3.15383H125.615V-9.15383H119.692V-15.1538V-21.0769V-27.0769H113.692V-21.0769V-15.1538V-9.15383H107.692V-15.1538H101.692V-21.0769H95.6924V-15.1538V-9.15383V-3.15383H101.692V2.84617Z" fill="white"/>
<path d="M359 -3.15383V-9.15383H353V-15.1538V-21.0769H347.077H341.077V-15.1538H335.077V-9.15383V-3.15383H329.077V-9.15383V-15.1538H323.077V-21.0769H317.154H311.154V-15.1538V-9.15383V-3.15383H305.154V-9.15383H299.154V-15.1538V-21.0769V-27.0769H293.154V-21.0769V-15.1538V-9.15383H287.231V-15.1538H281.231V-21.0769H275.231V-15.1538V-9.15383V-3.15383H281.231V2.84617H287.231V8.84617H293.154V14.7693H299.154V8.84617H305.154V14.7693V20.7692H311.154V14.7693V8.84617H317.154V2.84617V-3.15383H323.077V2.84617V8.84617H329.077V14.7693V20.7692H335.077V14.7693V8.84617H341.077V2.84617V-3.15383V-9.15383H347.077V-3.15383H353V2.84617V8.84617H359V14.7693H365V8.84617V2.84617H359V-3.15383Z" fill="white"/>
<path d="M359 8.84613H353V2.84613V-3.15387H347.077V-9.15387H341.077V-3.15387V2.84613V8.84613H335.077V14.7692V20.7692H341.077V14.7692H347.077H353V20.7692H359V26.7692H365V20.7692V14.7692H359V8.84613Z" fill="#A5C8E1"/>
<path d="M311.154 26.7693V32.7693H317.154V26.7693V20.7693V14.7693H323.077V20.7693V26.7693H329.077V32.7693H335.077V26.7693V20.7693H329.077V14.7693V8.84619H323.077V2.84619V-3.15381H317.154V2.84619V8.84619H311.154V14.7693V20.7693H305.154V26.7693H311.154Z" fill="#A5C8E1"/>
<path d="M281.231 20.7693H287.231V26.7693H293.154V20.7693H299.154H305.154V14.7693V8.84619H299.154V14.7693H293.154V8.84619H287.231V2.84619H281.231V-3.15381H275.231V2.84619V8.84619V14.7693H281.231V20.7693Z" fill="#A5C8E1"/>
<path d="M89.7693 -15.0769V-9.0769V-3.15383H83.7693V2.84617H77.7693V-3.15383V-9.0769V-15.0769V-21.0769H71.7693V-27.0769H65.7693H59.8462V-21.0769V-15.0769H53.8462V-9.0769V-3.15383V2.84617H47.8462V-3.15383H41.8462V2.84617V8.84617H47.8462V14.8462H53.8462H59.8462V8.84617V2.84617V-3.15383V-9.0769H65.7693H71.7693V-3.15383V2.84617V8.84617H77.7693V14.8462V20.8462H83.7693V14.8462H89.7693V8.84617V2.84617H95.6924V-3.15383V-9.0769V-15.0769V-21.0769H89.7693V-15.0769Z" fill="white"/>
<path d="M89.769 8.84619V14.8462H95.6921V8.84619V2.84619H89.769V8.84619Z" fill="#A5C8E1"/>
<path d="M89.769 14.8462H83.769V20.8462H89.769V14.8462Z" fill="#A5C8E1"/>
<path d="M77.769 -9.0769V-3.15383V2.84618H83.769V-3.15383H89.769V-9.0769H83.769V-15.0769V-21.0769H77.769V-15.0769V-9.0769Z" fill="white"/>
<path d="M83.769 20.8461H77.769V26.8461H83.769V20.8461Z" fill="#A5C8E1"/>
<path d="M71.769 20.8462H77.769V14.8462V8.84619H71.769V14.8462V20.8462Z" fill="#A5C8E1"/>
<path d="M65.7693 8.84617H71.7693V2.84617V-3.15383V-9.0769H65.7693H59.8462V-3.15383V2.84617V8.84617V14.8462H65.7693V8.84617Z" fill="#A5C8E1"/>
<path d="M41.8462 -3.15383H47.8462V2.84617H53.8462V-3.15383V-9.0769H47.8462V-15.0769H41.8462V-9.0769V-3.15383Z" fill="white"/>
<path d="M6 -9.0769V-3.15383V2.84617H11.9231V-3.15383H17.9231V-9.0769H11.9231H6Z" fill="white"/>
<path d="M0 2.84617H6V-3.15383V-9.0769H11.9231H17.9231V-15.0769V-21.0769V-27.0769H11.9231V-21.0769H6V-15.0769H0V-9.0769V-3.15383V2.84617Z" fill="white"/>
<path d="M0 14.8462H6V8.84617V2.84617H0V-3.15383V-9.0769H-6V-3.15383V2.84617V8.84617H0V14.8462Z" fill="white"/>
<path d="M6 26.7692V20.8462H11.9231V14.8462H17.9231V8.84617H23.9231H29.9231V14.8462H35.9231H41.8462V20.8462H47.8462V26.7692H53.8462V20.8462H59.8462V14.8462H53.8462H47.8462V8.84617H41.8462V2.84617V-3.15383H35.9231V-9.0769H29.9231H23.9231H17.9231V-3.15383H11.9231V2.84617H6V8.84617V14.8462H4.76837e-07V8.84617H-6V14.8462V20.8462V26.7692V32.7692H4.76837e-07V26.7692H6Z" fill="#A5C8E1"/>
</g>
</g>
<defs>
<clipPath id="clip0">
<rect width="359" height="33" fill="white"/>
</clipPath>
<clipPath id="clip1">
<rect width="358.462" height="33.0769" fill="white" transform="translate(0.153809)"/>
</clipPath>
</defs>
</svg>
