<svg width="166" height="162" viewBox="0 0 166 162" fill="none" xmlns="http://www.w3.org/2000/svg">
<rect x="75.8376" width="17.9058" height="35.8116" fill="#F08300"/>
<rect x="75.8376" y="125.341" width="17.9058" height="35.8116" fill="#CBE3EF"/>
<rect x="111.649" y="71.6232" width="17.9058" height="53.7174" transform="rotate(90 111.649 71.6232)" fill="#CBE3EF"/>
<rect x="165.367" y="71.6232" width="17.9058" height="35.8116" transform="rotate(90 165.367 71.6232)" fill="#CBE3EF"/>
<rect x="129.555" y="107.435" width="17.9058" height="17.9058" transform="rotate(90 129.555 107.435)" fill="#CBE3EF"/>
<rect x="129.555" y="35.8116" width="17.9058" height="17.9058" transform="rotate(90 129.555 35.8116)" fill="#F08300"/>
<rect x="57.9318" y="35.8116" width="17.9058" height="17.9058" transform="rotate(90 57.9318 35.8116)" fill="#F08300"/>
<rect x="57.9318" y="107.435" width="17.9058" height="17.9058" transform="rotate(90 57.9318 107.435)" fill="#CBE3EF"/>
<rect x="40.026" y="71.6232" width="17.9058" height="39.3928" transform="rotate(90 40.026 71.6232)" fill="#CBE3EF"/>
<rect x="75.8376" y="53.7174" width="17.9058" height="53.7174" fill="#CBE3EF"/>
</svg>
