<svg width="165" height="162" viewBox="0 0 165 162" fill="none" xmlns="http://www.w3.org/2000/svg">
<rect width="17.9058" height="35.8116" transform="matrix(1 0 0 -1 75.2043 161.806)" fill="#F08300"/>
<rect width="17.9058" height="35.8116" transform="matrix(1 0 0 -1 75.2043 36.465)" fill="#CBE3EF"/>
<rect width="17.9058" height="53.7174" transform="matrix(-4.37114e-08 -1 -1 4.37114e-08 111.016 90.1824)" fill="#CBE3EF"/>
<rect width="17.9058" height="35.8116" transform="matrix(-4.37114e-08 -1 -1 4.37114e-08 164.733 90.1824)" fill="#CBE3EF"/>
<rect width="17.9058" height="17.9058" transform="matrix(-4.37114e-08 -1 -1 4.37114e-08 128.922 54.3708)" fill="#CBE3EF"/>
<rect width="17.9058" height="17.9058" transform="matrix(-4.37114e-08 -1 -1 4.37114e-08 128.922 125.994)" fill="#CBE3EF"/>
<rect width="17.9058" height="17.9058" transform="matrix(-4.37114e-08 -1 -1 4.37114e-08 57.2985 125.994)" fill="#F08300"/>
<rect width="17.9058" height="17.9058" transform="matrix(-4.37114e-08 -1 -1 4.37114e-08 57.2985 54.3708)" fill="#CBE3EF"/>
<rect width="17.9058" height="39.3928" transform="matrix(-4.37114e-08 -1 -1 4.37114e-08 39.3927 90.1824)" fill="#F08300"/>
<rect width="17.9058" height="53.7174" transform="matrix(1 0 0 -1 75.2043 108.088)" fill="#CBE3EF"/>
</svg>
