<svg width="57" height="139" viewBox="0 0 57 139" fill="none" xmlns="http://www.w3.org/2000/svg">
<rect x="0.078125" y="14.0562" width="48.4157" height="110.888" fill="white"/>
<rect x="0.078125" y="6.24719" width="40.6067" height="126.506" fill="white"/>
<rect x="0.078125" y="132.753" width="40.6067" height="6.24719" fill="black"/>
<rect x="0.078125" width="40.6067" height="6.24719" fill="black"/>
<rect x="56.3027" y="14.0562" width="110.888" height="7.80898" transform="rotate(90 56.3027 14.0562)" fill="black"/>
<rect x="48.4941" y="6.24719" width="7.80899" height="7.80899" transform="rotate(90 48.4941 6.24719)" fill="black"/>
<rect x="48.4941" y="124.944" width="7.80899" height="7.80899" transform="rotate(90 48.4941 124.944)" fill="black"/>
</svg>
